{
  "project_info": {
    "project_number": "91816523974",
    "firebase_url": "https://appbaby-85de9.firebaseio.com",
    "project_id": "appbaby-85de9",
    "storage_bucket": "appbaby-85de9.appspot.com"
  },
  "client": [
    {
      "client_info": {
        "mobilesdk_app_id": "1:91816523974:android:057badb108419e18",
        "android_client_info": {
          "package_name": "com.example.ajinkya.app_monitor"
        }
      },
      "oauth_client": [
        {
          "client_id": "91816523974-ncfteagf7rlbg595c84kotsg2g37708u.apps.googleusercontent.com",
          "client_type": 3
        }
      ],
      "api_key": [
        {
          "current_key": "AIzaSyB8lzzKo7jmRXMNo_CFiOsHueU0LJEztsk"
        }
      ],
      "services": {
        "analytics_service": {
          "status": 1
        },
        "appinvite_service": {
          "status": 1,
          "other_platform_oauth_client": []
        },
        "ads_service": {
          "status": 2
        }
      }
    }
  ],
  "configuration_version": "1"
}